%YAML 1.1
%TAG !u! tag:unity3d.com,2011:
--- !u!74 &7400000
AnimationClip:
  m_ObjectHideFlags: 0
  m_CorrespondingSourceObject: {fileID: 0}
  m_PrefabInstance: {fileID: 0}
  m_PrefabAsset: {fileID: 0}
  m_Name: Jack Run
  serializedVersion: 6
  m_Legacy: 0
  m_Compressed: 0
  m_UseHighQualityCurve: 1
  m_RotationCurves: []
  m_CompressedRotationCurves: []
  m_EulerCurves: []
  m_PositionCurves: []
  m_ScaleCurves: []
  m_FloatCurves: []
  m_PPtrCurves:
  - curve:
    - time: 0
      value: {fileID: 21300000, guid: d7b4ab32195fb204181ac06ce545597d, type: 3}
    - time: 0.016666668
      value: {fileID: 21300000, guid: f31f1185ae8a1bf40b7b8cf46518b9d7, type: 3}
    - time: 0.033333335
      value: {fileID: 21300000, guid: 938a7f7d82ece3b44b7f6ce2ee186bfd, type: 3}
    - time: 0.05
      value: {fileID: 21300000, guid: cfe23cacef0037f4a8180cbecdf86cd6, type: 3}
    - time: 0.06666667
      value: {fileID: 21300000, guid: 04d56750d4d47ef46a7d44e937a70436, type: 3}
    - time: 0.083333336
      value: {fileID: 21300000, guid: a2fae37fcc3f1bf4b8d538300e5bc7d4, type: 3}
    - time: 0.1
      value: {fileID: 21300000, guid: 1747ed3d64b8be54da40dff9b15b01c3, type: 3}
    - time: 0.11666667
      value: {fileID: 21300000, guid: daa5b39c0b234e44085888ea2c9701ce, type: 3}
    - time: 0.13333334
      value: {fileID: 21300000, guid: a68624199c44d614d928703a5571dcae, type: 3}
    - time: 0.15
      value: {fileID: 21300000, guid: e06569360b0191640a305d2a161163ca, type: 3}
    - time: 0.16666667
      value: {fileID: 21300000, guid: 000d19bcb3636b84caaceb01c66b1e79, type: 3}
    - time: 0.18333334
      value: {fileID: 21300000, guid: 8756b91a303eab64ea1df91e8254e3e6, type: 3}
    - time: 0.2
      value: {fileID: 21300000, guid: 57b988b61bb15f547b0257f0e54ace95, type: 3}
    - time: 0.21666667
      value: {fileID: 21300000, guid: cd35f078eaa30ff4fa63cfbdc1936619, type: 3}
    - time: 0.23333333
      value: {fileID: 21300000, guid: f15465a72c870ef42bb8aebb12a33acc, type: 3}
    - time: 0.25
      value: {fileID: 21300000, guid: f79272e8a63f7f441a4d572d35d05d43, type: 3}
    - time: 0.26666668
      value: {fileID: 21300000, guid: 973a7c61d1441d64b82b266131c3fb61, type: 3}
    - time: 0.28333333
      value: {fileID: 21300000, guid: 66922a91b655ec3438414eda4f8f3056, type: 3}
    - time: 0.3
      value: {fileID: 21300000, guid: bca2fedd4eb403448a6de7465bfd3e50, type: 3}
    - time: 0.31666666
      value: {fileID: 21300000, guid: ee0a7b90dcba1714599767cea0ef15b3, type: 3}
    - time: 0.33333334
      value: {fileID: 21300000, guid: 0f4f52b345232f645bfd79d5949a6cce, type: 3}
    attribute: m_Sprite
    path: 
    classID: 114
    script: {fileID: 11500000, guid: fe87c0e1cc204ed48ad3b37840f39efc, type: 3}
  m_SampleRate: 60
  m_WrapMode: 0
  m_Bounds:
    m_Center: {x: 0, y: 0, z: 0}
    m_Extent: {x: 0, y: 0, z: 0}
  m_ClipBindingConstant:
    genericBindings:
    - serializedVersion: 2
      path: 0
      attribute: 2015549526
      script: {fileID: 11500000, guid: fe87c0e1cc204ed48ad3b37840f39efc, type: 3}
      typeID: 114
      customType: 0
      isPPtrCurve: 1
    pptrCurveMapping:
    - {fileID: 21300000, guid: d7b4ab32195fb204181ac06ce545597d, type: 3}
    - {fileID: 21300000, guid: f31f1185ae8a1bf40b7b8cf46518b9d7, type: 3}
    - {fileID: 21300000, guid: 938a7f7d82ece3b44b7f6ce2ee186bfd, type: 3}
    - {fileID: 21300000, guid: cfe23cacef0037f4a8180cbecdf86cd6, type: 3}
    - {fileID: 21300000, guid: 04d56750d4d47ef46a7d44e937a70436, type: 3}
    - {fileID: 21300000, guid: a2fae37fcc3f1bf4b8d538300e5bc7d4, type: 3}
    - {fileID: 21300000, guid: 1747ed3d64b8be54da40dff9b15b01c3, type: 3}
    - {fileID: 21300000, guid: daa5b39c0b234e44085888ea2c9701ce, type: 3}
    - {fileID: 21300000, guid: a68624199c44d614d928703a5571dcae, type: 3}
    - {fileID: 21300000, guid: e06569360b0191640a305d2a161163ca, type: 3}
    - {fileID: 21300000, guid: 000d19bcb3636b84caaceb01c66b1e79, type: 3}
    - {fileID: 21300000, guid: 8756b91a303eab64ea1df91e8254e3e6, type: 3}
    - {fileID: 21300000, guid: 57b988b61bb15f547b0257f0e54ace95, type: 3}
    - {fileID: 21300000, guid: cd35f078eaa30ff4fa63cfbdc1936619, type: 3}
    - {fileID: 21300000, guid: f15465a72c870ef42bb8aebb12a33acc, type: 3}
    - {fileID: 21300000, guid: f79272e8a63f7f441a4d572d35d05d43, type: 3}
    - {fileID: 21300000, guid: 973a7c61d1441d64b82b266131c3fb61, type: 3}
    - {fileID: 21300000, guid: 66922a91b655ec3438414eda4f8f3056, type: 3}
    - {fileID: 21300000, guid: bca2fedd4eb403448a6de7465bfd3e50, type: 3}
    - {fileID: 21300000, guid: ee0a7b90dcba1714599767cea0ef15b3, type: 3}
    - {fileID: 21300000, guid: 0f4f52b345232f645bfd79d5949a6cce, type: 3}
  m_AnimationClipSettings:
    serializedVersion: 2
    m_AdditiveReferencePoseClip: {fileID: 0}
    m_AdditiveReferencePoseTime: 0
    m_StartTime: 0
    m_StopTime: 0.35000002
    m_OrientationOffsetY: 0
    m_Level: 0
    m_CycleOffset: 0
    m_HasAdditiveReferencePose: 0
    m_LoopTime: 1
    m_LoopBlend: 0
    m_LoopBlendOrientation: 0
    m_LoopBlendPositionY: 0
    m_LoopBlendPositionXZ: 0
    m_KeepOriginalOrientation: 0
    m_KeepOriginalPositionY: 1
    m_KeepOriginalPositionXZ: 0
    m_HeightFromFeet: 0
    m_Mirror: 0
  m_EditorCurves: []
  m_EulerEditorCurves: []
  m_HasGenericRootTransform: 0
  m_HasMotionFloatCurves: 0
  m_Events: []
